<svg width="24" height="24" viewBox="0 0 32 32" fill="#000000" xmlns="http://www.w3.org/2000/svg">
<path d="M16 6L16 26M16 26L23 19.1034M16 26L9 19.1034" stroke="black" stroke-width="2" stroke-linejoin="round"/>
</svg>
