<svg width="496" height="496" viewBox="0 0 496 496" fill="none" xmlns="http://www.w3.org/2000/svg">
<path d="M193.318 17.1057C173.129 18.6303 153.461 24.3956 135.628 34.0162L134.04 34.9196L132.812 35.3628C132.872 35.3985 132.932 35.4342 132.992 35.47C106.264 50.6446 74.2058 81.0312 67.1943 140.653C66.9471 144.386 68.16 148.056 70.5819 150.904C73.0038 153.752 76.4495 155.56 80.2062 155.955C83.9628 156.349 87.743 155.299 90.7647 153.022C93.7864 150.745 95.8184 147.415 96.4403 143.721C102.913 89.2419 134.147 65.1913 159.693 54.5559C159.645 54.5118 159.597 54.4677 159.549 54.4236L159.972 54.2707C170.796 49.7094 182.284 46.9166 193.981 46.0023C197.756 45.6875 201.276 43.9462 203.808 41.141C206.34 38.3359 207.69 34.6833 207.574 30.9445C207.459 27.2056 205.889 23.6688 203.19 21.0711C200.492 18.4734 196.873 17.015 193.088 17L193.318 17.1057Z" fill="#F4F4F4"/>
<path d="M252.869 42.896C250.913 46.779 247.545 49.7972 243.448 51.3411C239.137 52.7736 234.445 52.4715 230.391 50.5005C226.337 48.5296 223.25 45.049 221.8 40.8154C221.031 38.708 220.701 36.4648 220.831 34.22C220.961 31.9752 221.547 29.7749 222.555 27.751C223.563 25.7271 224.971 23.9211 226.697 22.4411C228.422 20.9612 230.428 19.8378 232.595 19.1381C234.762 18.4384 237.045 18.1769 239.308 18.3692C241.571 18.5615 243.767 19.2036 245.764 20.2572C247.762 21.3107 249.52 22.754 250.933 24.5006C252.347 26.2472 253.386 28.2613 253.989 30.4221C255.226 34.555 254.826 39.0131 252.869 42.896Z" fill="#F4F4F4"/>
<path fill-rule="evenodd" clip-rule="evenodd" d="M407.095 87.8843C402.702 80.6535 397.595 73.8747 391.849 67.6459L391.638 67.0619C391.48 67.0725 391.323 67.0833 391.165 67.0944C378.219 53.7424 363.903 46.2916 348.407 45.1367C318.908 42.9607 294.744 59.4149 276.304 94.1226L275.88 94.9358C270.574 90.289 264.94 86.0208 259.02 82.1631C231.058 64.0909 202.157 60.3796 175.253 70.5276L175.231 70.5017L171.675 71.7855C141.463 85.142 121.233 110.643 113.133 145.625C109.1 164.295 108.048 183.447 110.018 202.382C93.9097 197.472 76.8076 196.466 60.1477 199.45C51.8226 200.96 43.9046 204.214 36.9277 208.993C29.9509 213.773 24.0776 219.966 19.704 227.155C12.9294 240.063 10.5369 254.741 12.868 269.002L12.8435 269.041C13.8445 276.62 15.5451 284.086 17.924 291.346C24.84 312.726 35.0686 332.889 48.2473 351.119C48.7137 351.278 49.1804 351.436 49.6474 351.593C49.1876 351.495 48.7281 351.398 48.2688 351.301C68.5725 379.43 96.3725 401.415 128.621 414.844C176.432 434.219 232.306 434.559 285.987 416.22L285.987 416.213L290.028 414.754C299.141 411.48 308.073 407.721 316.784 403.494C330.429 396.859 343.478 389.075 355.786 380.227L355.825 380.307L356.455 379.796L356.92 379.628C446.395 314.33 454.487 213.535 430.879 140.541C425.078 122.107 417.095 104.433 407.095 87.8843ZM63.0013 229.112C59.8053 230.138 56.664 231.403 53.5928 232.878C50.2085 235.058 47.3255 237.971 45.1863 241.432C39.9644 250.436 40.2603 264.52 46.0431 282.139C56.1572 314.621 75.5753 343.432 101.962 365.108L101.967 365.109C113.613 374.39 126.537 381.993 140.361 387.694C183.357 405.31 234.03 404.786 282.851 386.525L282.852 386.511L283.699 386.205C290.556 383.589 297.349 380.666 304.149 377.362C317.991 370.696 331.128 362.669 343.36 353.403L343.382 353.431L343.473 353.366C372.132 332.201 393.424 302.729 404.337 269.118C420.66 218.861 410.536 172.494 403.05 149.361C392.611 117.11 373.984 82.062 351.856 75.2455L351.732 75.1996L351.653 75.2226C349.798 74.6533 347.884 74.2851 345.944 74.1243C328.974 72.848 315.141 83.4515 302.373 107.484C297.681 116.959 294.388 127.04 292.594 137.416C290.09 150.996 288.809 164.759 288.768 178.54L289.554 178.728L289.556 178.747C299.2 180.785 308.454 184.293 316.986 189.149C335.315 199.941 349.686 216.197 358.06 235.613C366.385 255.238 362.983 269.949 358.684 278.856C355.177 285.911 349.835 291.928 343.211 296.284C336.671 300.584 329.117 303.11 321.313 303.61L321.307 303.612L321.247 303.614C321.168 303.619 321.089 303.623 321.01 303.628L321.007 303.622C314.207 303.824 307.47 302.423 301.353 299.535C295.147 296.604 289.763 292.227 285.659 286.777C267.957 265.304 262.052 228.776 260.243 205.856C254.816 206.285 249.419 207.052 244.083 208.153L244.059 208.078C237.218 209.561 230.475 211.474 223.872 213.805C207.098 219.283 191.68 228.257 178.666 240.118C184.59 245.663 189.812 251.898 194.22 258.689C203.719 273.742 208.326 287.307 207.869 299.305L207.854 299.29L207.853 299.303L207.463 299.68L207.598 300.055C207.415 304.607 206.448 309.102 204.737 313.346C202.357 318.833 198.691 323.691 194.045 327.517C189.399 331.342 183.906 334.025 178.025 335.34C172.571 336.707 166.877 336.761 161.424 335.497C155.97 334.232 150.917 331.687 146.69 328.075C133.969 317.486 127.792 298.642 129.367 276.48C130.235 266.162 133.098 256.086 137.801 246.799L138.034 246.385L138.235 245.9C134.824 244.071 131.513 242.376 128.301 240.853C115.408 234.363 101.527 229.967 87.1849 227.832L82.4824 227.266C79.6475 227.016 76.7939 227.005 73.9524 227.233C71.4312 227.346 68.9221 227.668 66.4516 228.196C65.203 228.317 64.1021 228.714 63.0013 229.112ZM306.207 265.09C306.882 266.037 307.642 267.071 308.429 268.095C314.271 275.133 318.775 275.016 322.76 273.86C324.749 273.333 326.605 272.391 328.202 271.099C329.8 269.807 331.102 268.194 332.021 266.369C333.206 263.21 333.706 259.845 333.487 256.496C333.268 253.146 332.336 249.887 330.751 246.932C324.9 233.271 314.84 221.813 301.991 214.174C298.185 212.191 294.232 210.493 290.164 209.096C292.478 231.538 298.066 252.322 306.041 264.616C306.062 264.678 306.083 264.739 306.104 264.799C306.139 264.898 306.173 264.995 306.207 265.09ZM100.749 364.793L101.951 365.106L101.04 364.925L100.291 364.709L100.749 364.793ZM242.214 106.145C225.496 95.4776 209.003 91.8322 193.691 95.1396L193.693 95.1426C190.177 95.9011 186.749 97.0277 183.468 98.5033C161.838 108.055 147.797 126.041 141.806 152.012C137.618 172.656 137.425 193.859 141.236 214.497C146.175 216.911 150.946 219.526 155.437 222.289C171.998 205.988 192.151 193.708 214.283 186.433C221.133 184.002 228.117 181.968 235.201 180.345L235.227 180.416C243.167 178.588 251.23 177.35 259.348 176.713C259.551 159.475 261.561 142.286 265.344 125.423C258.452 118.097 250.686 111.624 242.214 106.145ZM177.779 302.427C177.184 303.647 176.294 304.705 175.189 305.507C174.084 306.309 172.798 306.83 171.445 307.023C170.471 307.306 169.442 307.332 168.46 307.099C167.477 306.867 166.576 306.383 165.846 305.697C161.928 302.397 157.68 293.275 158.803 278.349C159.158 273.705 160.181 269.128 161.843 264.758C164.573 267.706 167.034 270.888 169.198 274.267C180.56 292.23 178.619 300.379 177.779 302.427Z" fill="#F4F4F4"/>
<path d="M473.343 275.254C475.775 275.915 477.987 277.186 479.768 278.944C481.64 280.802 482.961 283.135 483.588 285.69C484.215 288.246 484.125 290.929 483.328 293.452C477.377 310.459 469.5 326.762 459.849 342.048C450.691 356.913 440.2 370.941 428.503 383.96C414.676 399.365 399.182 413.227 382.305 425.293L381.517 425.577C370.204 433.597 358.301 440.763 345.91 447.014C335.711 452.148 325.21 456.663 314.465 460.533C306.392 463.447 297.986 466.056 289.247 468.362L288.527 468.622L288.5 468.397C264.496 474.594 239.896 478.146 215.151 478.988C211.254 479.144 207.469 477.764 204.628 475.151C201.787 472.539 200.123 468.907 200.003 465.055C199.883 461.204 201.315 457.448 203.986 454.614C205.308 453.211 206.895 452.076 208.655 451.275C210.415 450.474 212.314 450.021 214.243 449.944C239.108 449.125 263.807 445.291 287.784 438.529L287.853 438.504C303.108 434.138 317.936 428.391 332.147 421.337C344.011 415.394 355.378 408.517 366.136 400.772L366.134 400.768L366.369 400.604C366.554 400.471 366.738 400.338 366.922 400.204L366.928 400.215L366.975 400.182C381.073 389.914 394.069 378.24 405.755 365.345C427.294 341.885 444.108 314.592 455.281 284.954C456.06 282.568 457.444 280.415 459.3 278.7C461.157 276.986 463.424 275.769 465.884 275.165C468.343 274.562 470.912 274.592 473.343 275.254Z" fill="#F4F4F4"/>
<path d="M160.856 448.778C162.399 447.406 164.197 446.345 166.148 445.657C170.125 444.385 174.426 444.645 178.188 446.384C181.949 448.122 184.891 451.211 186.422 455.028C187.63 458.95 187.273 463.195 185.424 466.894C183.574 470.594 180.372 473.469 176.472 474.932C172.531 476.323 168.208 476.115 164.454 474.354C160.7 472.592 157.822 469.422 156.453 465.539C155.084 461.657 155.336 457.381 157.155 453.653C158.055 451.806 159.312 450.15 160.856 448.778Z" fill="#F4F4F4"/>
</svg>
