<svg width="26" height="18" viewBox="0 0 26 18" fill="none" xmlns="http://www.w3.org/2000/svg">
<path d="M24.9726 3.26806C24.8303 2.76469 24.5517 2.30574 24.1647 1.93713C23.7777 1.56853 23.2958 1.30321 22.7673 1.16772C20.821 0.666016 13 0.666016 13 0.666016C13 0.666016 5.17899 0.666016 3.23267 1.16772C2.70416 1.30321 2.22229 1.56853 1.83527 1.93713C1.44826 2.30574 1.16969 2.76469 1.02743 3.26806C0.664007 5.15859 0.487648 7.07743 0.500672 8.99935C0.487648 10.9213 0.664007 12.8401 1.02743 14.7306C1.16969 15.234 1.44826 15.693 1.83527 16.0616C2.22229 16.4302 2.70416 16.6955 3.23267 16.831C5.17899 17.3327 13 17.3327 13 17.3327C13 17.3327 20.821 17.3327 22.7673 16.831C23.2958 16.6955 23.7777 16.4302 24.1647 16.0616C24.5517 15.693 24.8303 15.234 24.9726 14.7306C25.336 12.8401 25.5124 10.9213 25.4993 8.99935C25.5124 7.07743 25.336 5.15859 24.9726 3.26806ZM10.5001 12.5708V5.42792L16.9909 8.99935L10.5001 12.5708Z" fill="#9E9E9E"/>
</svg>
