<svg width="18" height="12" viewBox="0 0 18 12" fill="none" xmlns="http://www.w3.org/2000/svg">
<path d="M18.0001 0H0V12.0002H18.0001V0Z" fill="#F0F0F0"/>
<path d="M10.125 0H7.87503V4.87499H0V7.125H7.87503V12H10.125V7.125H18.0001V4.87499H10.125V0Z" fill="#D80027"/>
<path d="M13.8477 8.08594L18.0037 10.3949V8.08594H13.8477Z" fill="#0052B4"/>
<path d="M10.957 8.08594L18.0005 11.999V10.8925L12.9488 8.08594H10.957Z" fill="#0052B4"/>
<path d="M16.1244 11.998L10.957 9.12695V11.998H16.1244Z" fill="#0052B4"/>
<path d="M10.957 8.08594L18.0005 11.999V10.8925L12.9488 8.08594H10.957Z" fill="#F0F0F0"/>
<path d="M10.957 8.08594L18.0005 11.999V10.8925L12.9488 8.08594H10.957Z" fill="#D80027"/>
<path d="M3.17606 8.08594L0 9.85044V8.08594H3.17606Z" fill="#0052B4"/>
<path d="M7.04578 8.58398V11.9995H0.898438L7.04578 8.58398Z" fill="#0052B4"/>
<path d="M5.05172 8.08594L0 10.8925V11.999L7.04351 8.08594H5.05172Z" fill="#D80027"/>
<path d="M4.15601 3.91245L0 1.60352V3.91245H4.15601Z" fill="#0052B4"/>
<path d="M7.04351 3.91304L0 0V1.10651L5.05172 3.91304H7.04351Z" fill="#0052B4"/>
<path d="M1.875 0L7.04236 2.87101V0H1.875Z" fill="#0052B4"/>
<path d="M7.04351 3.91304L0 0V1.10651L5.05172 3.91304H7.04351Z" fill="#F0F0F0"/>
<path d="M7.04351 3.91304L0 0V1.10651L5.05172 3.91304H7.04351Z" fill="#D80027"/>
<path d="M14.8242 3.91294L18.0003 2.14844V3.91294H14.8242Z" fill="#0052B4"/>
<path d="M10.957 3.41547V0H17.1044L10.957 3.41547Z" fill="#0052B4"/>
<path d="M12.9488 3.91304L18.0005 1.10651V0L10.957 3.91304H12.9488Z" fill="#D80027"/>
</svg>
